<svg viewBox="0 0 22 22" xmlns="http://www.w3.org/2000/svg">
    <path
        d="M19.9375 11.4997V18.3747C19.9375 19.2864 19.5753 20.1607 18.9307 20.8054C18.286 21.4501 17.4117 21.8122 16.5 21.8122H11.6875C11.5052 21.8122 11.3303 21.7398 11.2014 21.6109C11.0724 21.4819 11 21.3071 11 21.1247C11 20.9424 11.0724 20.7675 11.2014 20.6386C11.3303 20.5096 11.5052 20.4372 11.6875 20.4372H16.5C17.047 20.4372 17.5716 20.2199 17.9584 19.8331C18.3452 19.4463 18.5625 18.9217 18.5625 18.3747H16.5C15.953 18.3747 15.4284 18.1574 15.0416 17.7706C14.6548 17.3838 14.4375 16.8592 14.4375 16.3122V12.8747C14.4375 12.3277 14.6548 11.8031 15.0416 11.4163C15.4284 11.0295 15.953 10.8122 16.5 10.8122H18.5324C18.4023 9.38302 17.8683 8.02035 16.9926 6.88336C16.1169 5.74638 14.9358 4.88202 13.5872 4.39125C12.2387 3.90048 10.7783 3.80356 9.37668 4.11181C7.97507 4.42007 6.69011 5.12076 5.67188 6.13206C4.40572 7.38151 3.62478 9.04026 3.46844 10.8122H5.5C6.04701 10.8122 6.57161 11.0295 6.95841 11.4163C7.3452 11.8031 7.5625 12.3277 7.5625 12.8747V16.3122C7.5625 16.8592 7.3452 17.3838 6.95841 17.7706C6.57161 18.1574 6.04701 18.3747 5.5 18.3747H4.125C3.57799 18.3747 3.05339 18.1574 2.66659 17.7706C2.2798 17.3838 2.0625 16.8592 2.0625 16.3122V11.4997C2.06443 9.72932 2.59155 7.99928 3.57715 6.5286C4.56275 5.05791 5.96252 3.9127 7.59927 3.2379C9.23603 2.5631 11.0362 2.38906 12.7719 2.73781C14.5076 3.08656 16.1008 3.94242 17.3499 5.19706C18.1746 6.02576 18.8277 7.00904 19.2717 8.09057C19.7157 9.17209 19.942 10.3306 19.9375 11.4997Z" />
</svg>