<svg viewBox="0 0 22 22" xmlns="http://www.w3.org/2000/svg">
    <path opacity="0.2"
        d="M19.25 4.8125V18.5625L16.5 17.1875L13.75 18.5625L11 17.1875L8.25 18.5625L5.5 17.1875L2.75 18.5625V4.8125C2.75 4.63016 2.82243 4.4553 2.95136 4.32636C3.0803 4.19743 3.25516 4.125 3.4375 4.125H18.5625C18.7448 4.125 18.9197 4.19743 19.0486 4.32636C19.1776 4.4553 19.25 4.63016 19.25 4.8125Z" />
    <path
        d="M18.5625 3.4375H3.4375C3.07283 3.4375 2.72309 3.58237 2.46523 3.84023C2.20737 4.09809 2.0625 4.44783 2.0625 4.8125V18.5625C2.06242 18.6797 2.09232 18.7951 2.14937 18.8975C2.20642 18.9999 2.28872 19.0861 2.38844 19.1477C2.48817 19.2094 2.60201 19.2445 2.71914 19.2498C2.83627 19.2551 2.9528 19.2303 3.05766 19.1778L5.5 17.9558L7.94234 19.1778C8.03786 19.2256 8.14319 19.2505 8.25 19.2505C8.35681 19.2505 8.46214 19.2256 8.55766 19.1778L11 17.9558L13.4423 19.1778C13.5379 19.2256 13.6432 19.2505 13.75 19.2505C13.8568 19.2505 13.9621 19.2256 14.0577 19.1778L16.5 17.9558L18.9423 19.1778C19.0472 19.2303 19.1637 19.2551 19.2809 19.2498C19.398 19.2445 19.5118 19.2094 19.6116 19.1477C19.7113 19.0861 19.7936 18.9999 19.8506 18.8975C19.9077 18.7951 19.9376 18.6797 19.9375 18.5625V4.8125C19.9375 4.44783 19.7926 4.09809 19.5348 3.84023C19.2769 3.58237 18.9272 3.4375 18.5625 3.4375ZM18.5625 17.4505L16.8077 16.5722C16.7121 16.5244 16.6068 16.4995 16.5 16.4995C16.3932 16.4995 16.2879 16.5244 16.1923 16.5722L13.75 17.7942L11.3077 16.5722C11.2121 16.5244 11.1068 16.4995 11 16.4995C10.8932 16.4995 10.7879 16.5244 10.6923 16.5722L8.25 17.7942L5.80766 16.5722C5.71214 16.5244 5.60681 16.4995 5.5 16.4995C5.39319 16.4995 5.28786 16.5244 5.19234 16.5722L3.4375 17.4505V4.8125H18.5625V17.4505ZM5.19234 14.3653C5.27314 14.4058 5.36111 14.4299 5.45124 14.4363C5.54137 14.4428 5.63188 14.4314 5.7176 14.4028C5.80332 14.3742 5.88257 14.329 5.95081 14.2698C6.01906 14.2106 6.07496 14.1385 6.11531 14.0577L6.61203 13.0625H9.88797L10.3847 14.0577C10.4251 14.1385 10.481 14.2105 10.5493 14.2697C10.6175 14.3289 10.6967 14.3741 10.7825 14.4026C10.8682 14.4312 10.9587 14.4426 11.0488 14.4362C11.1389 14.4298 11.2269 14.4057 11.3077 14.3653C11.3885 14.3249 11.4605 14.269 11.5197 14.2007C11.5789 14.1325 11.6241 14.0533 11.6526 13.9675C11.6812 13.8818 11.6926 13.7913 11.6862 13.7012C11.6798 13.6111 11.6557 13.5231 11.6153 13.4423L8.86531 7.94234C8.80829 7.82794 8.72051 7.7317 8.61181 7.66442C8.50312 7.59715 8.37783 7.56151 8.25 7.56151C8.12217 7.56151 7.99688 7.59715 7.88819 7.66442C7.77949 7.7317 7.69171 7.82794 7.63469 7.94234L4.88469 13.4423C4.84423 13.5231 4.82009 13.6111 4.81365 13.7012C4.80722 13.7914 4.81862 13.8819 4.84719 13.9676C4.87576 14.0533 4.92095 14.1326 4.98018 14.2008C5.0394 14.2691 5.1115 14.325 5.19234 14.3653ZM8.25 9.78742L9.20047 11.6875H7.29953L8.25 9.78742ZM11.6875 11C11.6875 10.8177 11.7599 10.6428 11.8889 10.5139C12.0178 10.3849 12.1927 10.3125 12.375 10.3125H13.75V8.9375C13.75 8.75516 13.8224 8.5803 13.9514 8.45136C14.0803 8.32243 14.2552 8.25 14.4375 8.25C14.6198 8.25 14.7947 8.32243 14.9236 8.45136C15.0526 8.5803 15.125 8.75516 15.125 8.9375V10.3125H16.5C16.6823 10.3125 16.8572 10.3849 16.9861 10.5139C17.1151 10.6428 17.1875 10.8177 17.1875 11C17.1875 11.1823 17.1151 11.3572 16.9861 11.4861C16.8572 11.6151 16.6823 11.6875 16.5 11.6875H15.125V13.0625C15.125 13.2448 15.0526 13.4197 14.9236 13.5486C14.7947 13.6776 14.6198 13.75 14.4375 13.75C14.2552 13.75 14.0803 13.6776 13.9514 13.5486C13.8224 13.4197 13.75 13.2448 13.75 13.0625V11.6875H12.375C12.1927 11.6875 12.0178 11.6151 11.8889 11.4861C11.7599 11.3572 11.6875 11.1823 11.6875 11Z" />
</svg>