<svg viewBox="0 0 24 24" xmlns="http://www.w3.org/2000/svg">
    <path fill-rule="evenodd" clip-rule="evenodd"
        d="M5.81996 5.36196V12.4074C6.64116 11.9809 7.55986 11.7524 8.50178 11.7524C10.0247 11.7524 11.4869 12.3496 12.5745 13.4156C13.3562 14.1818 14.4072 14.611 15.5018 14.611C16.4856 14.611 17.4341 14.2643 18.1836 13.6379V6.59245C17.3624 7.01896 16.4437 7.24738 15.5018 7.24738C13.9789 7.24738 12.5166 6.65025 11.429 5.58421C10.6473 4.81799 9.59638 4.3888 8.50178 4.3888C7.51799 4.3888 6.56944 4.73549 5.81996 5.36196ZM4.42905 4.41561C5.51663 3.34956 6.97885 2.75244 8.50178 2.75244C10.0247 2.75244 11.4869 3.34956 12.5745 4.41561C13.3562 5.18183 14.4072 5.61101 15.5018 5.61101C16.5964 5.61101 17.6473 5.18183 18.429 4.41561C18.6643 4.18501 19.0149 4.11799 19.3187 4.24558C19.6224 4.37317 19.82 4.67047 19.82 4.99991V13.9999C19.82 14.2197 19.7315 14.4303 19.5745 14.5842C18.4869 15.6503 17.0247 16.2474 15.5018 16.2474C13.9789 16.2474 12.5166 15.6503 11.429 14.5842C10.6473 13.818 9.59638 13.3888 8.50178 13.3888C7.40717 13.3888 6.35621 13.818 5.5745 14.5842C5.33924 14.8148 4.98862 14.8818 4.6849 14.7542C4.38117 14.6266 4.18359 14.3293 4.18359 13.9999V4.99991C4.18359 4.78008 4.27206 4.56949 4.42905 4.41561Z" />
    <path fill-rule="evenodd" clip-rule="evenodd"
        d="M5.00178 13.1819C5.45364 13.1819 5.81996 13.5482 5.81996 14.0001V21.0001C5.81996 21.4519 5.45364 21.8182 5.00178 21.8182C4.54991 21.8182 4.18359 21.4519 4.18359 21.0001V14.0001C4.18359 13.5482 4.54991 13.1819 5.00178 13.1819Z" />
</svg>