<svg height="23" viewBox="0 0 22 23" xmlns="http://www.w3.org/2000/svg">
    <path
        d="M16.9873 16.5162C17.1156 16.645 17.1876 16.8195 17.1876 17.0013C17.1876 17.1831 17.1156 17.3576 16.9873 17.4864C16.8936 17.5784 14.6798 19.75 11 19.75C7.7868 19.75 5.45445 17.825 4.125 16.3254V18.375C4.125 18.5573 4.05257 18.7322 3.92364 18.8611C3.7947 18.9901 3.61984 19.0625 3.4375 19.0625C3.25516 19.0625 3.0803 18.9901 2.95136 18.8611C2.82243 18.7322 2.75 18.5573 2.75 18.375V14.25C2.75 14.0677 2.82243 13.8928 2.95136 13.7639C3.0803 13.6349 3.25516 13.5625 3.4375 13.5625H7.5625C7.74484 13.5625 7.9197 13.6349 8.04864 13.7639C8.17757 13.8928 8.25 14.0677 8.25 14.25C8.25 14.4323 8.17757 14.6072 8.04864 14.7361C7.9197 14.8651 7.74484 14.9375 7.5625 14.9375H4.76437C5.82312 16.2566 7.99219 18.375 11 18.375C14.0938 18.375 15.9964 16.5308 16.0153 16.5119C16.1448 16.3836 16.3199 16.312 16.5022 16.3128C16.6844 16.3136 16.8589 16.3868 16.9873 16.5162ZM18.5625 3.9375C18.3802 3.9375 18.2053 4.00993 18.0764 4.13886C17.9474 4.2678 17.875 4.44266 17.875 4.625V6.67461C16.5455 5.175 14.2132 3.25 11 3.25C7.32016 3.25 5.10641 5.42164 5.01359 5.51359C4.88436 5.64237 4.81158 5.81721 4.81126 5.99964C4.81094 6.18208 4.8831 6.35718 5.01187 6.48641C5.14065 6.61564 5.31549 6.68842 5.49793 6.68874C5.68036 6.68906 5.85546 6.6169 5.98469 6.48813C6.00359 6.46922 7.90625 4.625 11 4.625C14.0078 4.625 16.1769 6.74336 17.2356 8.0625H14.4375C14.2552 8.0625 14.0803 8.13493 13.9514 8.26386C13.8224 8.3928 13.75 8.56766 13.75 8.75C13.75 8.93234 13.8224 9.1072 13.9514 9.23614C14.0803 9.36507 14.2552 9.4375 14.4375 9.4375H18.5625C18.7448 9.4375 18.9197 9.36507 19.0486 9.23614C19.1776 9.1072 19.25 8.93234 19.25 8.75V4.625C19.25 4.44266 19.1776 4.2678 19.0486 4.13886C18.9197 4.00993 18.7448 3.9375 18.5625 3.9375Z" />
</svg>